{
  "connection": "default",
  "collectionName": "docus",
  "info": {
    "name": "docus",
    "description": ""
  },
  "options": {
    "timestamps": true
  },
  "attributes": {
    "layout": {
      "default": "",
      "unique": true,
      "type": "string",
      "required": true
    },
    "jsondata": {
      "default": "",
      "type": "json"
    },
    "preview_layout": {
      "default": "",
      "type": "text"
    }
  }
}